<svg width="20" height="20"
 viewBox="0 0 20 20" fill="none" xmlns="http://www.w3.org/2000/svg">
<rect width="20" height="20" fill="white"/>
<path d="M3 6.68573L3.65627 6L10 12.6285L16.3437 6L17 6.68573L10 14L3 6.68573Z" fill="currentColor"/>
</svg>
