<svg width="20" height="20"
     viewBox="0 0 20 20" fill="none" xmlns="http://www.w3.org/2000/svg">
<path d="M3.19205 5.45898H4.19429C4.33349 5.45898 4.44828 5.35087 4.45699 5.2119C4.49051 4.6752 4.66221 4.14784 4.96605 3.68618C4.9652 3.70918 4.96428 3.73212 4.96428 3.75535C4.96428 4.7746 5.79028 5.60091 6.80914 5.60091C7.828 5.60091 8.65399 4.7746 8.65399 3.75535C8.65399 3.71481 8.65222 3.67473 8.64966 3.63488C8.97496 4.10844 9.15753 4.65533 9.1923 5.2119C9.20101 5.35087 9.31574 5.45898 9.455 5.45898H10.4573C10.5326 5.45898 10.6043 5.42647 10.6543 5.37011C10.7042 5.31381 10.7278 5.23883 10.7189 5.16402C10.582 4.00961 9.65173 3.09864 8.48878 2.99183C8.19842 2.35362 7.55591 1.90967 6.80925 1.90967C6.06122 1.90967 5.41769 2.35528 5.12813 2.99536C3.98048 3.11606 3.06611 4.02037 2.93055 5.16396C2.92167 5.23871 2.94523 5.31369 2.9952 5.37005C3.04505 5.42647 3.11676 5.45898 3.19205 5.45898Z" fill="#00236D"/>
<path d="M16.9315 2.40089H17.7869C17.988 2.40089 18.1511 2.23784 18.1511 2.03667C18.1511 1.83549 17.9881 1.67245 17.7869 1.67245H16.6093C16.2973 1.26378 15.8053 1 15.2514 1C14.413 1 13.7161 1.60421 13.5713 2.40089H16.3335H16.9315Z" fill="#00236D"/>
<path d="M15.2513 4.41637C16.1448 4.41637 16.8777 3.73016 16.9527 2.85608H13.5498C13.6249 3.73016 14.3577 4.41637 15.2513 4.41637Z" fill="#00236D"/>
<path d="M18.9924 10.5219L18.2713 5.66878C18.2205 5.32668 17.9265 5.08221 17.5904 5.08232L12.8889 5.08215C12.5779 5.0821 12.2955 5.29337 12.2196 5.60929L11.2394 9.69275L8.57819 6.59433C8.40291 6.39028 8.14249 6.36193 7.89118 6.36193C7.16478 6.36193 6.31141 6.36193 5.48923 6.36193C5.17361 6.36193 4.85491 6.44562 4.70797 6.74167L2.07799 12.0414C1.90498 12.39 2.02728 12.8241 2.37085 13.0067C2.47767 13.0634 2.59194 13.0902 2.70445 13.0902C2.96613 13.0902 3.2179 12.9452 3.34219 12.6948L4.17592 11.0147L3.82194 13.4366C3.74158 13.7308 3.84852 14.0523 4.11104 14.2385C4.23909 14.3294 4.39519 14.3721 4.55221 14.3721H4.7156V17.098C4.7156 17.5578 5.06884 17.9535 5.52799 17.9751C6.01821 17.9982 6.4229 17.6075 6.4229 17.1221V14.6523C6.4229 14.4976 6.54827 14.3722 6.7029 14.3722C6.85752 14.3722 6.98289 14.4976 6.98289 14.6523V17.098C6.98289 17.5578 7.33613 17.9535 7.79528 17.9751C8.28551 17.9982 8.69019 17.6075 8.69019 17.1221V14.3722H8.85358C9.01054 14.3722 9.16664 14.3294 9.29469 14.2386C9.55722 14.0523 9.66415 13.7308 9.58379 13.4367L8.96956 9.23404L11.0399 11.6321C11.3786 12.0244 12.0181 11.8769 12.151 11.3759L13.2034 7.4088H13.2946L13.305 17.1504C13.305 17.5953 13.6468 17.9781 14.091 17.9991C14.5654 18.0215 14.9569 17.6433 14.9569 17.1737V12.2251C14.9569 12.073 15.0802 11.9497 15.2322 11.9497C15.3843 11.9497 15.5076 12.073 15.5076 12.2251V17.1504C15.5076 17.5953 15.8494 17.9781 16.2936 17.9991C16.7679 18.0215 17.1595 17.6433 17.1595 17.1737L17.1694 7.62064L17.6306 10.7244C17.6814 11.0663 17.9752 11.3118 18.3106 11.3118C18.3442 11.3118 18.3783 11.3093 18.4126 11.3043C18.7888 11.2484 19.0483 10.8981 18.9924 10.5219Z" fill="#00236D"/>
</svg>
